{
    "results": [
        {
            "popularity": 1107.137,
            "vote_count": 95,
            "video": false,
            "poster_path": "\/7D430eqZj8y3oVkLFfsWXGRcpEG.jpg",
            "id": 528085,
            "adult": false,
            "backdrop_path": "\/5UkzNSOK561c2QRy2Zr4AkADzLT.jpg",
            "original_language": "en",
            "original_title": "2067",
            "genre_ids": [
                878,
                53
            ],
            "title": "2067",
            "vote_average": 5.8,
            "overview": "A lowly utility worker is called to the future by a mysterious radio signal, he must leave his dying wife to embark on a journey that will force him to face his deepest fears in an attempt to change the fabric of reality and save humankind from its greatest environmental crisis yet.",
            "release_date": "2020-10-01"
        },
        {
            "popularity": 1014.159,
            "vote_count": 2430,
            "video": false,
            "poster_path": "\/aKx1ARwG55zZ0GpRvU2WrGrCG9o.jpg",
            "id": 337401,
            "adult": false,
            "backdrop_path": "\/zzWGRw277MNoCs3zhyG3YmYQsXv.jpg",
            "original_language": "en",
            "original_title": "Mulan",
            "genre_ids": [
                28,
                12,
                18,
                14
            ],
            "title": "Mulan",
            "vote_average": 7.3,
            "overview": "When the Emperor of China issues a decree that one man per family must serve in the Imperial Chinese Army to defend the country from Huns, Hua Mulan, the eldest daughter of an honored warrior, steps in to take the place of her ailing father. She is spirited, determined and quick on her feet. Disguised as a man by the name of Hua Jun, she is tested every step of the way and must harness her innermost strength and embrace her true potential.",
            "release_date": "2020-09-04"
        },
        {
            "popularity": 937.871,
            "vote_count": 132,
            "video": false,
            "poster_path": "\/6CoRTJTmijhBLJTUNoVSUNxZMEI.jpg",
            "id": 694919,
            "adult": false,
            "backdrop_path": "\/pq0JSpwyT2URytdFG0euztQPAyR.jpg",
            "original_language": "en",
            "original_title": "Money Plane",
            "genre_ids": [
                28
            ],
            "title": "Money Plane",
            "vote_average": 6.1,
            "overview": "A professional thief with $40 million in debt and his family's life on the line must commit one final heist - rob a futuristic airborne casino filled with the world's most dangerous criminals.",
            "release_date": "2020-09-29"
        },
        {
            "popularity": 811.456,
            "vote_count": 470,
            "video": false,
            "poster_path": "\/qzA87Wf4jo1h8JMk9GilyIYvwsA.jpg",
            "id": 539885,
            "adult": false,
            "backdrop_path": "\/54yOImQgj8i85u9hxxnaIQBRUuo.jpg",
            "original_language": "en",
            "original_title": "Ava",
            "genre_ids": [
                28,
                80,
                18,
                53
            ],
            "title": "Ava",
            "vote_average": 5.9,
            "overview": "A black ops assassin is forced to fight for her own survival after a job goes dangerously wrong.",
            "release_date": "2020-07-02"
        },
        {
            "popularity": 707.221,
            "vote_count": 599,
            "video": false,
            "poster_path": "\/sy6DvAu72kjoseZEjocnm2ZZ09i.jpg",
            "id": 581392,
            "adult": false,
            "backdrop_path": "\/gEjNlhZhyHeto6Fy5wWy5Uk3A9D.jpg",
            "original_language": "ko",
            "original_title": "\ubc18\ub3c4",
            "genre_ids": [
                28,
                27,
                53
            ],
            "title": "Peninsula",
            "vote_average": 7.1,
            "overview": "A soldier and his team battle hordes of post-apocalyptic zombies in the wastelands of the Korean Peninsula.",
            "release_date": "2020-07-15"
        },
        {
            "popularity": 484.911,
            "vote_count": 63,
            "video": false,
            "poster_path": "\/4BgSWFMW2MJ0dT5metLzsRWO7IJ.jpg",
            "id": 726739,
            "adult": false,
            "backdrop_path": "\/t22fWbzdnThPseipsdpwgdPOPCR.jpg",
            "original_language": "en",
            "original_title": "Cats & Dogs 3: Paws Unite",
            "genre_ids": [
                28,
                35
            ],
            "title": "Cats & Dogs 3: Paws Unite",
            "vote_average": 6.6,
            "overview": "It's been ten years since the creation of the Great Truce, an elaborate joint-species surveillance system designed and monitored by cats and dogs to keep the peace when conflicts arise. But when a tech-savvy villain hacks into wireless networks to use frequencies only heard by cats and dogs, he manipulates them into conflict and the worldwide battle between cats and dogs is BACK ON. Now, a team of inexperienced and untested agents will have to use their old-school animal instincts to restore order and peace between cats and dogs everywhere.",
            "release_date": "2020-10-02"
        },
        {
            "popularity": 397.436,
            "vote_count": 456,
            "video": false,
            "poster_path": "\/kiX7UYfOpYrMFSAGbI6j1pFkLzQ.jpg",
            "id": 613504,
            "adult": false,
            "backdrop_path": "\/r5srC0cqU36n38azFnCyReEksiR.jpg",
            "original_language": "en",
            "original_title": "After We Collided",
            "genre_ids": [
                18,
                10749
            ],
            "title": "After We Collided",
            "vote_average": 6.6,
            "overview": "Tessa finds herself struggling with her complicated relationship with Hardin; she faces a dilemma that could change their lives forever.",
            "release_date": "2020-09-02"
        },
        {
            "popularity": 321.536,
            "vote_count": 1197,
            "video": false,
            "poster_path": "\/7W0G3YECgDAfnuiHG91r8WqgIOe.jpg",
            "id": 446893,
            "adult": false,
            "backdrop_path": "\/qsxhnirlp7y4Ae9bd11oYJSX59j.jpg",
            "original_language": "en",
            "original_title": "Trolls World Tour",
            "genre_ids": [
                12,
                16,
                35,
                14,
                10402,
                10751
            ],
            "title": "Trolls World Tour",
            "vote_average": 7.6,
            "overview": "Queen Poppy and Branch make a surprising discovery \u2014 there are other Troll worlds beyond their own, and their distinct differences create big clashes between these various tribes. When a mysterious threat puts all of the Trolls across the land in danger, Poppy, Branch, and their band of friends must embark on an epic quest to create harmony among the feuding Trolls to unite them against certain doom.",
            "release_date": "2020-03-12"
        },
        {
            "popularity": 280.672,
            "vote_count": 73,
            "video": false,
            "poster_path": "\/ltyARDw2EFXZ2H2ERnlEctXPioP.jpg",
            "id": 425001,
            "adult": false,
            "backdrop_path": "\/4gKyQ1McHa8ZKDsYoyKQSevF01J.jpg",
            "original_language": "en",
            "original_title": "The War with Grandpa",
            "genre_ids": [
                35,
                18,
                10751
            ],
            "title": "The War with Grandpa",
            "vote_average": 6.1,
            "overview": "Sixth-grader Peter is pretty much your average kid\u2014he likes gaming, hanging with his friends and his beloved pair of Air Jordans. But when his recently widowed grandfather Ed  moves in with Peter\u2019s family, the boy is forced to give up his most prized possession of all, his bedroom. Unwilling to let such an injustice stand, Peter devises a series of increasingly elaborate pranks to drive out the interloper, but Grandpa Ed won\u2019t go without a fight.",
            "release_date": "2020-08-27"
        },
        {
            "popularity": 245.897,
            "vote_count": 426,
            "video": false,
            "poster_path": "\/zGVbrulkupqpbwgiNedkJPyQum4.jpg",
            "id": 592350,
            "adult": false,
            "backdrop_path": "\/9guoVF7zayiiUq5ulKQpt375VIy.jpg",
            "original_language": "ja",
            "original_title": "\u50d5\u306e\u30d2\u30fc\u30ed\u30fc\u30a2\u30ab\u30c7\u30df\u30a2 THE MOVIE \u30d2\u30fc\u30ed\u30fc\u30ba\uff1a\u30e9\u30a4\u30b8\u30f3\u30b0",
            "genre_ids": [
                28,
                16
            ],
            "title": "My Hero Academia: Heroes Rising",
            "vote_average": 8.6,
            "overview": "Class 1-A visits Nabu Island where they finally get to do some real hero work. The place is so peaceful that it's more like a vacation \u2026 until they're attacked by a villain with an unfathomable Quirk! His power is eerily familiar, and it looks like Shigaraki had a hand in the plan. But with All Might retired and citizens' lives on the line, there's no time for questions. Deku and his friends are the next generation of heroes, and they're the island's only hope.",
            "release_date": "2019-12-20"
        },
        {
            "popularity": 233.338,
            "vote_count": 136,
            "video": false,
            "poster_path": "\/ucktgbaMSaETUDLUBp1ubGD6aNj.jpg",
            "id": 619592,
            "adult": false,
            "backdrop_path": "\/eIqyISB5j99OSRZUuvdN9g2bBsS.jpg",
            "original_language": "en",
            "original_title": "Force of Nature",
            "genre_ids": [
                28,
                80,
                18
            ],
            "title": "Force of Nature",
            "vote_average": 5.3,
            "overview": "A gang of thieves plan a heist during a hurricane and encounter trouble when a disgraced cop tries to force everyone in the building to evacuate.",
            "release_date": "2020-07-02"
        },
        {
            "popularity": 214.439,
            "vote_count": 388,
            "video": false,
            "poster_path": "\/hPkqY2EMqWUnFEoedukilIUieVG.jpg",
            "id": 531876,
            "adult": false,
            "backdrop_path": "\/n1RohH2VoK1CdVI2fXvcP19dSlm.jpg",
            "original_language": "en",
            "original_title": "The Outpost",
            "genre_ids": [
                28,
                18,
                36,
                10752
            ],
            "title": "The Outpost",
            "vote_average": 6.7,
            "overview": "A small unit of U.S. soldiers, alone at the remote Combat Outpost Keating, located deep in the valley of three mountains in Afghanistan, battles to defend against an overwhelming force of Taliban fighters in a coordinated attack. The Battle of Kamdesh, as it was known, was the bloodiest American engagement of the Afghan War in 2009 and Bravo Troop 3-61 CAV became one of the most decorated units of the 19-year conflict.",
            "release_date": "2020-06-24"
        },
        {
            "popularity": 185.497,
            "vote_count": 85,
            "video": false,
            "poster_path": "\/gzFatNrw0lhKD5NxaU6zC7S2KjP.jpg",
            "id": 659986,
            "adult": false,
            "backdrop_path": "\/xUUtcxWC6H48UCrpRwwSPQz69XC.jpg",
            "original_language": "en",
            "original_title": "The Owners",
            "genre_ids": [
                28,
                27,
                53
            ],
            "title": "The Owners",
            "vote_average": 5.7,
            "overview": "A group of friends think they found the perfect easy score - an empty house with a safe full of cash. But when the elderly couple that lives there comes home early, the tables are suddenly turned. As a deadly game of cat and mouse ensues, the would-be thieves must fight to save themselves from a nightmare they could never have imagined.",
            "release_date": "2020-08-27"
        },
        {
            "popularity": 184.35,
            "vote_count": 48,
            "video": false,
            "poster_path": "\/vQgXwuJrlpzGDI8169tRQRy71Nv.jpg",
            "id": 479259,
            "adult": false,
            "backdrop_path": "\/wUP0KIAXcRevjjJpoSKT7LLhiaK.jpg",
            "original_language": "en",
            "original_title": "Lost Girls & Love Hotels",
            "genre_ids": [
                18,
                53
            ],
            "title": "Lost Girls & Love Hotels",
            "vote_average": 5.2,
            "overview": "Searching for escape in Tokyo's back alleys, a haunted English teacher explores love and lust with a dashing Yakuza, as their tumultuous affair takes her on a journey through the city's dive bars and three-hour love hotels.",
            "release_date": "2020-09-18"
        },
        {
            "popularity": 179.894,
            "vote_count": 715,
            "video": false,
            "poster_path": "\/4w1ItwCJCTtSi9nPfJC1vU6NIVg.jpg",
            "id": 413518,
            "adult": false,
            "backdrop_path": "\/AdqOBPw4PdtzOcfEuQuZ8MNeTKb.jpg",
            "original_language": "it",
            "original_title": "Pinocchio",
            "genre_ids": [
                12,
                18,
                14,
                10751
            ],
            "title": "Pinocchio",
            "vote_average": 6.8,
            "overview": "In this live-action adaptation of the beloved fairytale, old woodcarver Geppetto fashions a wooden puppet, Pinocchio, who magically comes to life. Pinocchio longs for adventure and is easily led astray, encountering magical beasts, fantastical spectacles, while making friends and foes along his journey. However, his dream is to become a real boy, which can only come true if he finally changes his ways.",
            "release_date": "2019-12-19"
        },
        {
            "popularity": 179.665,
            "vote_count": 180,
            "video": false,
            "poster_path": "\/irkse1FMm9dWemwlxKJ7RINT9Iy.jpg",
            "id": 627290,
            "adult": false,
            "backdrop_path": "\/pGqBDYycGWsMYc57sYv5M9GAQoW.jpg",
            "original_language": "en",
            "original_title": "Antebellum",
            "genre_ids": [
                27
            ],
            "title": "Antebellum",
            "vote_average": 6,
            "overview": "Successful author Veronica finds herself trapped in a horrifying reality and must uncover the mind-bending mystery before it's too late.",
            "release_date": "2020-09-02"
        },
        {
            "popularity": 176.532,
            "vote_count": 225,
            "video": false,
            "poster_path": "\/4V2nTPfeB59TcqJcUfQ9ziTi7VN.jpg",
            "id": 501979,
            "adult": false,
            "backdrop_path": "\/oazPqs1z78LcIOFslbKtJLGlueo.jpg",
            "original_language": "en",
            "original_title": "Bill & Ted Face the Music",
            "genre_ids": [
                12,
                35,
                878
            ],
            "title": "Bill & Ted Face the Music",
            "vote_average": 6.3,
            "overview": "Yet to fulfill their rock and roll destiny, the now middle-aged best friends Bill and Ted set out on a new adventure when a visitor from the future warns them that only their song can save life as we know it. Along the way, they are helped by their daughters, a new batch of historical figures and a few music legends\u2014to seek the song that will set their world right and bring harmony to the universe.",
            "release_date": "2020-08-27"
        },
        {
            "popularity": 167.928,
            "vote_count": 1006,
            "video": false,
            "poster_path": "\/7G2VvG1lU8q758uOqU6z2Ds0qpA.jpg",
            "id": 499932,
            "adult": false,
            "backdrop_path": "\/rUeqBuNDR9zN6vZV9kpEFMtQm0E.jpg",
            "original_language": "en",
            "original_title": "The Devil All the Time",
            "genre_ids": [
                80,
                18,
                53
            ],
            "title": "The Devil All the Time",
            "vote_average": 7.4,
            "overview": "In Knockemstiff, Ohio and its neighboring backwoods, sinister characters converge around young Arvin Russell as he fights the evil forces that threaten him and his family.",
            "release_date": "2020-09-11"
        },
        {
            "popularity": 167.627,
            "vote_count": 40,
            "video": false,
            "poster_path": "\/gizz5FphOtfSnLaGpRALOZgILd5.jpg",
            "id": 530723,
            "adult": false,
            "backdrop_path": "\/kriOlxu4KVEjd0ZaY3dW7YYyP4z.jpg",
            "original_language": "en",
            "original_title": "Bad Education",
            "genre_ids": [
                35,
                18,
                10770
            ],
            "title": "Bad Education",
            "vote_average": 6.8,
            "overview": "A superintendent of a school district works for the betterment of the student\u2019s education when an embezzlement scheme is discovered, threatening to destroy everything.",
            "release_date": "2020-09-23"
        },
        {
            "popularity": 163.229,
            "vote_count": 2043,
            "video": false,
            "poster_path": "\/k68nPLbIST6NP96JmTxmZijEvCA.jpg",
            "id": 577922,
            "adult": false,
            "backdrop_path": "\/wzJRB4MKi3yK138bJyuL9nx47y6.jpg",
            "original_language": "en",
            "original_title": "Tenet",
            "genre_ids": [
                28,
                878,
                53
            ],
            "title": "Tenet",
            "vote_average": 7.5,
            "overview": "Armed with only one word - Tenet - and fighting for the survival of the entire world, the Protagonist journeys through a twilight world of international espionage on a mission that will unfold in something beyond real time.",
            "release_date": "2020-08-22"
        }
    ],
    "page": 1,
    "total_results": 1334,
    "dates": {
        "maximum": "2020-10-12",
        "minimum": "2020-08-25"
    },
    "total_pages": 67
}